U.S. STATE CONSTITUTIONS WORD COUNT: Revisiting Clouse’s Dataset. Trabalho Final - MQCP
…
state_const <- read_excel("US-State_Constitutions_Dataset_1776-2017.xlsx")
States_and_Abbreviations <- read_excel("States and Abbreviations.xlsx")

Método

Utilizamos a base de dados construída por Julia Clouse, conforme informações e fontes dispostas na planilha apresentada abaixo:

state_cons_sources <- read_excel("state_constitutions_sources.xlsx")

state_cons_sources

## # A tibble: 204 x 4
##    `U.S. State` `Contitution Yea~ Source             `Original Link`            
##    <chr>                    <dbl> <chr>              <chr>                      
##  1 Alabama                   1819 Poore, B.P. (Part~ https://play.google.com/bo~
##  2 Alabama                   1861 Alabama, Legislat~ http://www.legislature.sta~
##  3 Alabama                   1865 Poore, B.P. (Part~ https://play.google.com/bo~
##  4 Alabama                   1867 Poore, B.P. (Part~ https://play.google.com/bo~
##  5 Alabama                   1875 Poore, B.P. (Part~ https://play.google.com/bo~
##  6 Alabama                   1901 Alabama, Contribu~ https://play.google.com/bo~
##  7 Alabama                   2016 Alabama, Legislat~ http://alisondb.legislatur~
##  8 Alaska                    1956 Fairbanks Daily N~ https://newspaperarchive.c~
##  9 Alaska                    2004 Alaska             https://ltgov.alaska.gov/i~
## 10 Arizona                   1912 Arizona, Compiled~ https://play.google.com/bo~
## # ... with 194 more rows
…
